{
	"buildDir": "/tmp/yay/",
	"editor": "",
	"editorflags": "",
	"makepkgbin": "makepkg",
	"pacmanbin": "pacman",
	"pacmanconf": "/etc/pacman.conf",
	"tarbin": "bsdtar",
	"redownload": "no",
	"rebuild": "no",
	"answerclean": "none",
	"answeredit": "none",
	"answerupgrade": "",
	"gitbin": "git",
	"gpgbin": "gpg",
	"gpgflags": "",
	"mflags": "",
	"sortby": "votes",
	"gitflags": "",
	"requestsplitn": 150,
	"sortmode": 0,
	"sudoloop": true,
	"timeupdate": false,
	"devel": false,
	"cleanAfter": true,
	"gitclone": true
}
