Cypress C22V10 Jedec Fuse File: FFD.jed

This file was created on 09/01/2018 at 18:07:41 
by PLA2JED.EXE    31/03/2000  [v4.02 ] 6.3 IR 35

C22V10*
QP24*                Number of Pins*
QF5828*              Number of Fuses*
F0*                  Note: Default fuse setting 0*
G0*                  Note: Security bit Unprogrammed*
NOTE DEVICE C22V10*
NOTE PACKAGE palc22v10d-25pc*
NOTE PROPERTY BUS_HOLD ENABLE*
NOTE PINS  clk:1 d:2 clr:3 pre:4 qn:22 q:23 *
NOTE PINS *
NOTE NODES *
L00000
11111111101111111111111111111111111111111111
* Node clk[1] => BANK : 1 *

L00044
11111111111111111111111111111111111111111111
11111111111101111111111111111111111111111111
11110111111111111111111111111111111111111111
00000000000000000000000000000000000000000000
00000000000000000000000000000000000000000000
00000000000000000000000000000000000000000000
00000000000000000000000000000000000000000000
00000000000000000000000000000000000000000000
00000000000000000000000000000000000000000000
* Node q[23] => OE : 1 ,LOGIC : 8 *

L00440
11111111111111111111111111111111111111111111
11011111111111111111111111111111111111111111
00000000000000000000000000000000000000000000
00000000000000000000000000000000000000000000
00000000000000000000000000000000000000000000
00000000000000000000000000000000000000000000
00000000000000000000000000000000000000000000
00000000000000000000000000000000000000000000
00000000000000000000000000000000000000000000
00000000000000000000000000000000000000000000
00000000000000000000000000000000000000000000
* Node qn[22] => OE : 1 ,LOGIC : 10 *

L00924
00000000000000000000000000000000000000000000
00000000000000000000000000000000000000000000
00000000000000000000000000000000000000000000
00000000000000000000000000000000000000000000
00000000000000000000000000000000000000000000
00000000000000000000000000000000000000000000
00000000000000000000000000000000000000000000
00000000000000000000000000000000000000000000
00000000000000000000000000000000000000000000
00000000000000000000000000000000000000000000
00000000000000000000000000000000000000000000
00000000000000000000000000000000000000000000
00000000000000000000000000000000000000000000
* Not Used #[21] => OE : 1 ,LOGIC : 12 *

L01496
00000000000000000000000000000000000000000000
00000000000000000000000000000000000000000000
00000000000000000000000000000000000000000000
00000000000000000000000000000000000000000000
00000000000000000000000000000000000000000000
00000000000000000000000000000000000000000000
00000000000000000000000000000000000000000000
00000000000000000000000000000000000000000000
00000000000000000000000000000000000000000000
00000000000000000000000000000000000000000000
00000000000000000000000000000000000000000000
00000000000000000000000000000000000000000000
00000000000000000000000000000000000000000000
00000000000000000000000000000000000000000000
00000000000000000000000000000000000000000000
* Not Used #[20] => OE : 1 ,LOGIC : 14 *

L02156
00000000000000000000000000000000000000000000
00000000000000000000000000000000000000000000
00000000000000000000000000000000000000000000
00000000000000000000000000000000000000000000
00000000000000000000000000000000000000000000
00000000000000000000000000000000000000000000
00000000000000000000000000000000000000000000
00000000000000000000000000000000000000000000
00000000000000000000000000000000000000000000
00000000000000000000000000000000000000000000
00000000000000000000000000000000000000000000
00000000000000000000000000000000000000000000
00000000000000000000000000000000000000000000
00000000000000000000000000000000000000000000
00000000000000000000000000000000000000000000
00000000000000000000000000000000000000000000
00000000000000000000000000000000000000000000
* Not Used #[19] => OE : 1 ,LOGIC : 16 *

L02904
00000000000000000000000000000000000000000000
00000000000000000000000000000000000000000000
00000000000000000000000000000000000000000000
00000000000000000000000000000000000000000000
00000000000000000000000000000000000000000000
00000000000000000000000000000000000000000000
00000000000000000000000000000000000000000000
00000000000000000000000000000000000000000000
00000000000000000000000000000000000000000000
00000000000000000000000000000000000000000000
00000000000000000000000000000000000000000000
00000000000000000000000000000000000000000000
00000000000000000000000000000000000000000000
00000000000000000000000000000000000000000000
00000000000000000000000000000000000000000000
00000000000000000000000000000000000000000000
00000000000000000000000000000000000000000000
* Not Used #[18] => OE : 1 ,LOGIC : 16 *

L03652
00000000000000000000000000000000000000000000
00000000000000000000000000000000000000000000
00000000000000000000000000000000000000000000
00000000000000000000000000000000000000000000
00000000000000000000000000000000000000000000
00000000000000000000000000000000000000000000
00000000000000000000000000000000000000000000
00000000000000000000000000000000000000000000
00000000000000000000000000000000000000000000
00000000000000000000000000000000000000000000
00000000000000000000000000000000000000000000
00000000000000000000000000000000000000000000
00000000000000000000000000000000000000000000
00000000000000000000000000000000000000000000
00000000000000000000000000000000000000000000
* Not Used #[17] => OE : 1 ,LOGIC : 14 *

L04312
00000000000000000000000000000000000000000000
00000000000000000000000000000000000000000000
00000000000000000000000000000000000000000000
00000000000000000000000000000000000000000000
00000000000000000000000000000000000000000000
00000000000000000000000000000000000000000000
00000000000000000000000000000000000000000000
00000000000000000000000000000000000000000000
00000000000000000000000000000000000000000000
00000000000000000000000000000000000000000000
00000000000000000000000000000000000000000000
00000000000000000000000000000000000000000000
00000000000000000000000000000000000000000000
* Not Used #[16] => OE : 1 ,LOGIC : 12 *

L04884
00000000000000000000000000000000000000000000
00000000000000000000000000000000000000000000
00000000000000000000000000000000000000000000
00000000000000000000000000000000000000000000
00000000000000000000000000000000000000000000
00000000000000000000000000000000000000000000
00000000000000000000000000000000000000000000
00000000000000000000000000000000000000000000
00000000000000000000000000000000000000000000
00000000000000000000000000000000000000000000
00000000000000000000000000000000000000000000
* Not Used #[15] => OE : 1 ,LOGIC : 10 *

L05368
00000000000000000000000000000000000000000000
00000000000000000000000000000000000000000000
00000000000000000000000000000000000000000000
00000000000000000000000000000000000000000000
00000000000000000000000000000000000000000000
00000000000000000000000000000000000000000000
00000000000000000000000000000000000000000000
00000000000000000000000000000000000000000000
00000000000000000000000000000000000000000000
* Not Used #[14] => OE : 1 ,LOGIC : 8 *

L05764
00000000000000000000000000000000000000000000
* Node d[2] => BANK : 1 *

L05808
10* Note: 23 *

L05810
11* Note: 22 *

L05812
00* Note: 21 *

L05814
00* Note: 20 *

L05816
00* Note: 19 *

L05818
00* Note: 18 *

L05820
00* Note: 17 *

L05822
00* Note: 16 *

L05824
00* Note: 15 *

L05826
00* Note: 14 *

C2099*               Note: Fuse Checksum*
5B89
