
     | | | | | | |
   _________________
  -|               |-
  -|               |-
  -|               |-
  -|    CYPRESS    |-
  -|               |-
  -|               |-   Warp VHDL Synthesis Compiler: Version 6.3 IR 35
  -|               |-   Copyright (C) 1991-2001 Cypress Semiconductor
   |_______________|
     | | | | | | |

======================================================================
Compiling:  practica1.vhd
Options:    -yu -e10 -w100 -o2 -ygs -fP -v10 -dc22v10 -ppalce22v10-15pc -b practica1.vhd -u Practica1.hie
======================================================================

C:\PROGRA~2\Cypress\Warp\bin\vhdlfe.exe V6.3 IR 35:  VHDL parser
Thu Aug 09 19:32:36 2018

Library 'work' => directory 'lc22v10'
Linking 'C:\Program Files (x86)\Cypress\Warp\bin\std.vhd'.
Linking 'C:\Program Files (x86)\Cypress\Warp\lib\common\cypress.vhd'.
Linking 'C:\Program Files (x86)\Cypress\Warp\lib\common\work\cypress.vif'.
Library 'ieee' => directory 'C:\Program Files (x86)\Cypress\Warp\lib\ieee\work'
Linking 'C:\Program Files (x86)\Cypress\Warp\lib\ieee\work\stdlogic.vif'.

C:\PROGRA~2\Cypress\Warp\bin\vhdlfe.exe:  No errors.


C:\PROGRA~2\Cypress\Warp\bin\tovif.exe V6.3 IR 35:  High-level synthesis
Thu Aug 09 19:32:37 2018

Linking 'C:\Program Files (x86)\Cypress\Warp\bin\std.vhd'.
Linking 'C:\Program Files (x86)\Cypress\Warp\lib\common\cypress.vhd'.
Linking 'C:\Program Files (x86)\Cypress\Warp\lib\common\work\cypress.vif'.
Linking 'C:\Program Files (x86)\Cypress\Warp\lib\ieee\work\stdlogic.vif'.
practica1.vhd (line 37, col 7):  Warning: (W479) 'ref' should be referenced in the sensitivity list.
practica1.vhd (line 39, col 10):  Warning: (W479) 'ref' should be referenced in the sensitivity list.
practica1.vhd (line 41, col 10):  Warning: (W479) 'ref' should be referenced in the sensitivity list.
practica1.vhd (line 43, col 10):  Warning: (W479) 'ref' should be referenced in the sensitivity list.
practica1.vhd (line 45, col 10):  Warning: (W479) 'ref' should be referenced in the sensitivity list.
practica1.vhd (line 47, col 10):  Warning: (W479) 'ref' should be referenced in the sensitivity list.
practica1.vhd (line 49, col 10):  Warning: (W479) 'ref' should be referenced in the sensitivity list.
practica1.vhd (line 51, col 10):  Warning: (W479) 'ref' should be referenced in the sensitivity list.
practica1.vhd (line 53, col 10):  Warning: (W479) 'ref' should be referenced in the sensitivity list.
practica1.vhd (line 55, col 10):  Warning: (W479) 'ref' should be referenced in the sensitivity list.
practica1.vhd (line 57, col 10):  Warning: (W479) 'ref' should be referenced in the sensitivity list.
practica1.vhd (line 59, col 10):  Warning: (W479) 'ref' should be referenced in the sensitivity list.
practica1.vhd (line 61, col 10):  Warning: (W479) 'ref' should be referenced in the sensitivity list.
practica1.vhd (line 63, col 10):  Warning: (W479) 'ref' should be referenced in the sensitivity list.
practica1.vhd (line 65, col 10):  Warning: (W479) 'ref' should be referenced in the sensitivity list.
practica1.vhd (line 67, col 10):  Warning: (W479) 'ref' should be referenced in the sensitivity list.

C:\PROGRA~2\Cypress\Warp\bin\tovif.exe:  No errors.  16 warnings.


C:\PROGRA~2\Cypress\Warp\bin\topld.exe V6.3 IR 35:  Synthesis and optimization
Thu Aug 09 19:32:37 2018

Linking 'C:\Program Files (x86)\Cypress\Warp\bin\std.vhd'.
Linking 'C:\Program Files (x86)\Cypress\Warp\lib\common\cypress.vhd'.
Linking 'C:\Program Files (x86)\Cypress\Warp\lib\common\work\cypress.vif'.
Linking 'C:\Program Files (x86)\Cypress\Warp\lib\ieee\work\stdlogic.vif'.

----------------------------------------------------------
Detecting unused logic.
----------------------------------------------------------



------------------------------------------------------
Alias Detection
------------------------------------------------------

------------------------------------------------------
Aliased 0 equations, 0 wires.
------------------------------------------------------

----------------------------------------------------------
Circuit simplification
----------------------------------------------------------

----------------------------------------------------------
Circuit simplification results:

	Expanded 5 signals.
	Turned 0 signals into soft nodes.
	Maximum default expansion cost was set at 10.
----------------------------------------------------------

------------------------------------------------------
Alias Detection
------------------------------------------------------

------------------------------------------------------
Aliased 0 equations, 0 wires.
------------------------------------------------------
Created 24 PLD nodes.

C:\PROGRA~2\Cypress\Warp\bin\topld.exe:  No errors.

----------------------------------------------------------------------------
PLD Optimizer Software:       DSGNOPT.EXE    31/03/2000  [v4.02 ] 6.3 IR 35

DESIGN HEADER INFORMATION  (19:32:39)

Input File(s): practica1.pla
Device       : C22V10
Package      : palce22v10-15pc
ReportFile   : practica1.rpt

Program Controls:
    COMMAND LANGUAGE_VHDL 
    COMMAND PROPERTY BUS_HOLD ENABLE 

Signal Requests:
    GROUP USEPOL ALL
    GROUP FAST_SLEW ALL

Completed Successfully  
----------------------------------------------------------------------------
PLD Optimizer Software:       DSGNOPT.EXE    31/03/2000  [v4.02 ] 6.3 IR 35

OPTIMIZATION OPTIONS       (19:32:39)

Messages:
  Information: Optimizing logic using best output polarity for signals:
         display(1) display(4)

  Information: Selected logic optimization OFF for signals:
         display(0) display(2) display(3) display(5) display(6)



Summary:
                 Error Count = 0      Warning Count = 0

Completed Successfully  
----------------------------------------------------------------------------
PLD Optimizer Software:       MINOPT.EXE     01/NOV/1999  [v4.02 ] 6.3 IR 35

LOGIC MINIMIZATION         ()

Messages:


Summary:
                 Error Count = 0      Warning Count = 0

Completed Successfully
----------------------------------------------------------------------------
PLD Optimizer Software:       DSGNOPT.EXE    31/03/2000  [v4.02 ] 6.3 IR 35

OPTIMIZATION OPTIONS       (19:32:39)

Messages:
  Information: Optimizing Banked Preset/Reset requirements.


Summary:
                 Error Count = 0      Warning Count = 0

Completed Successfully  
----------------------------------------------------------------------------
PLD Compiler Software:        PLA2JED.EXE    31/03/2000  [v4.02 ] 6.3 IR 35

<CYPRESSTAG name="Equations" icon=FILE_RPT_EQUATION>
DESIGN EQUATIONS           (19:32:39)
</CYPRESSTAG>

    display(0) =
          GND

    /display(1) =
          d(0) * d(1) * /ref(1) * sel(0) * sel(1) 
        + d(1) * /ref(0) * /ref(1) * sel(0) * sel(1) 
        + b(0) * b(1) * /ref(1) * /sel(0) * sel(1) 
        + b(1) * /ref(0) * /ref(1) * /sel(0) * sel(1) 
        + c(0) * c(1) * /ref(1) * sel(0) * /sel(1) 
        + c(1) * /ref(0) * /ref(1) * sel(0) * /sel(1) 
        + a(0) * a(1) * /ref(1) * /sel(0) * /sel(1) 
        + a(1) * /ref(0) * /ref(1) * /sel(0) * /sel(1) 
        + d(0) * /ref(0) * sel(0) * sel(1) 
        + b(0) * /ref(0) * /sel(0) * sel(1) 
        + c(0) * /ref(0) * sel(0) * /sel(1) 
        + a(0) * /ref(0) * /sel(0) * /sel(1) 

    display(2) =
          display(1) 

    display(3) =
          GND

    /display(4) =
          /d(1) * ref(0) * ref(1) * sel(0) * sel(1) 
        + /d(0) * /d(1) * ref(1) * sel(0) * sel(1) 
        + /b(1) * ref(0) * ref(1) * /sel(0) * sel(1) 
        + /b(0) * /b(1) * ref(1) * /sel(0) * sel(1) 
        + /c(1) * ref(0) * ref(1) * sel(0) * /sel(1) 
        + /c(0) * /c(1) * ref(1) * sel(0) * /sel(1) 
        + /a(1) * ref(0) * ref(1) * /sel(0) * /sel(1) 
        + /a(0) * /a(1) * ref(1) * /sel(0) * /sel(1) 
        + /d(0) * ref(0) * sel(0) * sel(1) 
        + /b(0) * ref(0) * /sel(0) * sel(1) 
        + /c(0) * ref(0) * sel(0) * /sel(1) 
        + /a(0) * ref(0) * /sel(0) * /sel(1) 

    display(5) =
          display(4) 

    display(6) =
          VCC


Completed Successfully  
----------------------------------------------------------------------------
PLD Compiler Software:        PLA2JED.EXE    31/03/2000  [v4.02 ] 6.3 IR 35

DESIGN RULE CHECK          (19:32:39)

Messages:
                 None.


Summary:
                 Error Count = 0      Warning Count = 0

Completed Successfully  
----------------------------------------------------------------------------
PLD Compiler Software:        PLA2JED.EXE    31/03/2000  [v4.02 ] 6.3 IR 35

<CYPRESSTAG name="Pinout" icon=FILE_RPT_PINOUT>
PINOUT INFORMATION   (19:32:39)
</CYPRESSTAG>
Messages:
  Information: All signals pre-placed in user design.


                                 C22V10
                 __________________________________________
           a(0) =| 1|                                  |24|* not used       
           a(1) =| 2|                                  |23|= display(6)     
           b(0) =| 3|                                  |22|= display(5)     
           b(1) =| 4|                                  |21|= display(4)     
           c(0) =| 5|                                  |20|= display(3)     
           c(1) =| 6|                                  |19|= display(2)     
           d(0) =| 7|                                  |18|= display(1)     
           d(1) =| 8|                                  |17|= display(0)     
         sel(0) =| 9|                                  |16|* not used       
         sel(1) =|10|                                  |15|* not used       
         ref(0) =|11|                                  |14|* not used       
       not used *|12|                                  |13|= ref(1)         
                 __________________________________________


Summary:
                 Error Count = 0      Warning Count = 0

Completed Successfully  
  Information: Checking for duplicate NODE logic.
----------------------------------------------------------------------------
PLD Compiler Software:        PLA2JED.EXE    31/03/2000  [v4.02 ] 6.3 IR 35

<CYPRESSTAG name="Utilization" icon=FILE_RPT_UTILIZATION>
RESOURCE UTILIZATION (19:32:39)
</CYPRESSTAG>
  Information: Macrocell Utilization.

                     Description        Used     Max
                 ______________________________________
                 | Dedicated Inputs   |   11  |   11  |
                 | Clock/Inputs       |    1  |    1  |
                 | I/O Macrocells     |    7  |   10  |
                 ______________________________________
                                          19  /   22   = 86  %


  Information: Output Logic Product Term Utilization.

                  Node#  Output Signal Name  Used   Max
                 ________________________________________
                 | 14  |  Unused          |   0  |   8  |
                 | 15  |  Unused          |   0  |  10  |
                 | 16  |  Unused          |   0  |  12  |
                 | 17  |  display(0)      |   1  |  14  |
                 | 18  |  display(1)      |  12  |  16  |
                 | 19  |  display(2)      |   1  |  16  |
                 | 20  |  display(3)      |   1  |  14  |
                 | 21  |  display(4)      |  12  |  12  |
                 | 22  |  display(5)      |   1  |  10  |
                 | 23  |  display(6)      |   1  |   8  |
                 | 25  |  Unused          |   0  |   1  |
                 ________________________________________
                                             29  / 121   = 23  %


Completed Successfully  
----------------------------------------------------------------------------
PLD Compiler Software:        PLA2JED.EXE    31/03/2000  [v4.02 ] 6.3 IR 35

JEDEC ASSEMBLE             (19:32:39)

Messages:
  Information: Output file 'practica1.pin' created.
  Information: Output file 'practica1.jed' created.

  Usercode:    
  Checksum:    B2F7



Summary:
                 Error Count = 0      Warning Count = 0

Completed Successfully at 19:32:39
